%YAML 1.1
%TAG !u! tag:unity3d.com,2011:
--- !u!114 &4527457017977928591
MonoBehaviour:
  m_ObjectHideFlags: 0
  m_CorrespondingSourceObject: {fileID: 0}
  m_PrefabInstance: {fileID: 0}
  m_PrefabAsset: {fileID: 0}
  m_GameObject: {fileID: 5115534362871985760}
  m_Enabled: 1
  m_EditorHideFlags: 0
  m_Script: {fileID: 11500000, guid: ac6efeb922a05ce4291d86279b844088, type: 3}
  m_Name: 
  m_EditorClassIdentifier: 
  m_providedTime: 5
  OnTimeRewardObtained: {fileID: 11400000, guid: 4d4f6b176407e474b861a7364f59a841,
    type: 2}
--- !u!1001 &3143454925948444370
PrefabInstance:
  m_ObjectHideFlags: 0
  serializedVersion: 2
  m_Modification:
    m_TransformParent: {fileID: 0}
    m_Modifications:
    - target: {fileID: 3399902836183792913, guid: 46e09171ec29b8a45812bd84ec62c341,
        type: 3}
      propertyPath: m_fruitType
      value: 2
      objectReference: {fileID: 0}
    - target: {fileID: 3927207246892079219, guid: 46e09171ec29b8a45812bd84ec62c341,
        type: 3}
      propertyPath: m_LocalPosition.x
      value: 2.53
      objectReference: {fileID: 0}
    - target: {fileID: 3927207246892079219, guid: 46e09171ec29b8a45812bd84ec62c341,
        type: 3}
      propertyPath: m_LocalPosition.y
      value: 1.89
      objectReference: {fileID: 0}
    - target: {fileID: 3927207246892079219, guid: 46e09171ec29b8a45812bd84ec62c341,
        type: 3}
      propertyPath: m_LocalPosition.z
      value: 0
      objectReference: {fileID: 0}
    - target: {fileID: 3927207246892079219, guid: 46e09171ec29b8a45812bd84ec62c341,
        type: 3}
      propertyPath: m_LocalRotation.x
      value: 0
      objectReference: {fileID: 0}
    - target: {fileID: 3927207246892079219, guid: 46e09171ec29b8a45812bd84ec62c341,
        type: 3}
      propertyPath: m_LocalRotation.y
      value: 0
      objectReference: {fileID: 0}
    - target: {fileID: 3927207246892079219, guid: 46e09171ec29b8a45812bd84ec62c341,
        type: 3}
      propertyPath: m_LocalRotation.z
      value: 0
      objectReference: {fileID: 0}
    - target: {fileID: 3927207246892079219, guid: 46e09171ec29b8a45812bd84ec62c341,
        type: 3}
      propertyPath: m_LocalRotation.w
      value: 1
      objectReference: {fileID: 0}
    - target: {fileID: 3927207246892079219, guid: 46e09171ec29b8a45812bd84ec62c341,
        type: 3}
      propertyPath: m_RootOrder
      value: 0
      objectReference: {fileID: 0}
    - target: {fileID: 3927207246892079219, guid: 46e09171ec29b8a45812bd84ec62c341,
        type: 3}
      propertyPath: m_LocalEulerAnglesHint.x
      value: 0
      objectReference: {fileID: 0}
    - target: {fileID: 3927207246892079219, guid: 46e09171ec29b8a45812bd84ec62c341,
        type: 3}
      propertyPath: m_LocalEulerAnglesHint.y
      value: 0
      objectReference: {fileID: 0}
    - target: {fileID: 3927207246892079219, guid: 46e09171ec29b8a45812bd84ec62c341,
        type: 3}
      propertyPath: m_LocalEulerAnglesHint.z
      value: 0
      objectReference: {fileID: 0}
    - target: {fileID: 4762013725178928296, guid: 46e09171ec29b8a45812bd84ec62c341,
        type: 3}
      propertyPath: m_Sprite
      value: 
      objectReference: {fileID: -4570538037665054336, guid: 3d6be91968cb95546ac95aeff5e52f84,
        type: 3}
    - target: {fileID: 7843441149403838431, guid: 46e09171ec29b8a45812bd84ec62c341,
        type: 3}
      propertyPath: OnCollected.m_PersistentCalls.m_Calls.Array.size
      value: 4
      objectReference: {fileID: 0}
    - target: {fileID: 7843441149403838431, guid: 46e09171ec29b8a45812bd84ec62c341,
        type: 3}
      propertyPath: OnCollected.m_PersistentCalls.m_Calls.Array.data[3].m_Target
      value: 
      objectReference: {fileID: 4527457017977928591}
    - target: {fileID: 7843441149403838431, guid: 46e09171ec29b8a45812bd84ec62c341,
        type: 3}
      propertyPath: OnCollected.m_PersistentCalls.m_Calls.Array.data[3].m_MethodName
      value: HNDL_ProvideTime
      objectReference: {fileID: 0}
    - target: {fileID: 7843441149403838431, guid: 46e09171ec29b8a45812bd84ec62c341,
        type: 3}
      propertyPath: OnCollected.m_PersistentCalls.m_Calls.Array.data[3].m_Mode
      value: 1
      objectReference: {fileID: 0}
    - target: {fileID: 7843441149403838431, guid: 46e09171ec29b8a45812bd84ec62c341,
        type: 3}
      propertyPath: OnCollected.m_PersistentCalls.m_Calls.Array.data[3].m_Arguments.m_ObjectArgumentAssemblyTypeName
      value: UnityEngine.Object, UnityEngine
      objectReference: {fileID: 0}
    - target: {fileID: 7843441149403838431, guid: 46e09171ec29b8a45812bd84ec62c341,
        type: 3}
      propertyPath: OnCollected.m_PersistentCalls.m_Calls.Array.data[3].m_CallState
      value: 2
      objectReference: {fileID: 0}
    - target: {fileID: 7881806222286006450, guid: 46e09171ec29b8a45812bd84ec62c341,
        type: 3}
      propertyPath: m_Name
      value: FruitPickable_TimeReward Variant
      objectReference: {fileID: 0}
    - target: {fileID: 8025436754105875209, guid: 46e09171ec29b8a45812bd84ec62c341,
        type: 3}
      propertyPath: m_audioclip
      value: 
      objectReference: {fileID: 8300000, guid: 6a8c60075137cfd4399c724d469adb9f, type: 3}
    m_RemovedComponents: []
  m_SourcePrefab: {fileID: 100100000, guid: 46e09171ec29b8a45812bd84ec62c341, type: 3}
--- !u!1 &5115534362871985760 stripped
GameObject:
  m_CorrespondingSourceObject: {fileID: 7881806222286006450, guid: 46e09171ec29b8a45812bd84ec62c341,
    type: 3}
  m_PrefabInstance: {fileID: 3143454925948444370}
  m_PrefabAsset: {fileID: 0}
