%YAML 1.1
%TAG !u! tag:unity3d.com,2011:
--- !u!114 &11400000
MonoBehaviour:
  m_ObjectHideFlags: 0
  m_CorrespondingSourceObject: {fileID: 0}
  m_PrefabInstance: {fileID: 0}
  m_PrefabAsset: {fileID: 0}
  m_GameObject: {fileID: 0}
  m_Enabled: 1
  m_EditorHideFlags: 0
  m_Script: {fileID: 11500000, guid: aa42aa23d8447e341afd0baa55d1d6d6, type: 3}
  m_Name: Level03
  m_EditorClassIdentifier: 
  m_levelTime: 90
  m_minSpawnTick: 7
  m_maxSpawnTick: 18
  m_levelClip: {fileID: 8300000, guid: 0a332fd0e1a195b42bfd31ef8f19235e, type: 3}
  m_initialChanceOfSomething: 20
  m_randomizer: 0100000001000000010000000100000001000000010000000200000000000000
  m_level: {fileID: 5654575786570698381, guid: 9e137cf7a6024694e87a16e97698b83f, type: 3}
  m_cellSize: 2.3
  m_sizeX: 7
  m_sizeY: 4
  m_centerGridX: 3
  m_centerGridY: 2
